…
texto_columnas <-unlist(lapply(ingredientes_separados, FUN=toTitleCase))
```
## Contando ingredientes
Aqui se cuentan los ingredientes que mas se repiten para asi tener la frecuencia de estos

``` r
tabla <- table(texto_columnas)
tabla <- tibble(word = names(tabla), count = as.numeric(tabla))
tabla <- arrange(tabla, desc(count))
tabla
```

    ## # A tibble: 220 x 2
    ##    word                 count
    ##    <chr>                <dbl>
    ##  1 " Tomate"                9
    ##  2 " Lechuga"               6
    ##  3 " Palta"                 6
    ##  4 " Cebolla Morada"        4
    ##  5 " Mayonesa"              4
    ##  6 " Pepinillos"            4
    ##  7 " Queso Cheddar"         3
    ##  8 " Rúcula"                3
    ##  9 " Tocino"                3
    ## 10 " Ají Cherry Pepper"     2
    ## # ... with 210 more rows
…
